n.case_name,i.case_name,i.date_filed
Albrecht v. Herald Co.,Federation of Musicians v. Carroll,1968-05-20
Albrecht v. Herald Co.,Perma Mufflers v. Int'l Parts Corp.,1968-06-10
Albrecht v. Herald Co.,"Continental TV, Inc. v. GTE Sylvania Inc.",1977-06-23
Albrecht v. Herald Co.,Arizona v. Maricopa County Medical Soc.,1982-06-18
Albrecht v. Herald Co.,Copperweld Corp. v. Independence Tube Corp.,1984-06-19
Albrecht v. Herald Co.,Business Electronics Corp. v. Sharp Electronics Corp.,1988-05-02
Albrecht v. Herald Co.,Atlantic Richfield Co. v. USA Petroleum Co.,1990-05-14
Albrecht v. Herald Co.,State Oil Co. v. Khan,1997-11-04
Albrecht v. Herald Co.,"Leegin Creative Leather Products v. PSKS, Inc.",2007-06-28
Albrecht v. Herald Co.,"Halliburton Co. v. Erica P. John Fund, Inc.",2014-06-23