n.case_name,i.case_name,i.date_filed
State Oil Co. v. Khan,United States v. Detroit Timber & Lumber Co.,1906-02-19
State Oil Co. v. Khan,Board of Trade of Chicago v. United States,1918-03-04
State Oil Co. v. Khan,Burnet v. Coronado Oil & Gas Co.,1932-04-11
State Oil Co. v. Khan,Tigner v. Texas,1940-06-03
State Oil Co. v. Khan,"Kiefer-Stewart Co. v. Joseph E. Seagram & Sons, Inc.",1951-02-26
State Oil Co. v. Khan,"Toolson v. New York Yankees, Inc.",1953-11-09
State Oil Co. v. Khan,Northern Pacific R. Co. v. United States,1958-03-10
State Oil Co. v. Khan,"United States v. Arnold, Schwinn & Co.",1967-06-12
State Oil Co. v. Khan,Albrecht v. Herald Co.,1968-04-08
State Oil Co. v. Khan,"Continental TV, Inc. v. GTE Sylvania Inc.",1977-06-23
State Oil Co. v. Khan,Illinois Brick Co. v. Illinois,1977-10-03
State Oil Co. v. Khan,National Soc. of Professional Engineers v. United States,1978-04-25
State Oil Co. v. Khan,Arizona v. Maricopa County Medical Soc.,1982-06-18
State Oil Co. v. Khan,Copperweld Corp. v. Independence Tube Corp.,1984-06-19
State Oil Co. v. Khan,FTC v. Indiana Federation of Dentists,1986-06-02
State Oil Co. v. Khan,324 Liquor Corp. v. Duffy,1987-01-13
State Oil Co. v. Khan,McNally v. United States,1987-06-24
State Oil Co. v. Khan,Business Electronics Corp. v. Sharp Electronics Corp.,1988-05-02
State Oil Co. v. Khan,Atlantic Richfield Co. v. USA Petroleum Co.,1990-05-14
State Oil Co. v. Khan,Payne v. Tennessee,1991-09-13
State Oil Co. v. Khan,Neal v. United States,1996-01-22
State Oil Co. v. Khan,Agostini v. Felton,1997-06-23